…
library(TCGAbiolinks) 
QUERY_clin <- GDCquery(
  project = c("TCGA-SKCM","TCGA-BRCA","TCGA-KIRC","TCGA-LUAD","TCGA-LUSC"), data.category = "Clinical",
  data.type = "Clinical Supplement",
  data.format = "BCR Biotab",
  #case_ids = Meta_ALL$case_id
) # this takes a few minutes to query
GDCdownload(QUERY_clin) # this may also take a few minutes if the first time downloaded
Clinical_Meta <- GDCprepare(QUERY_clin)

head(Clinical_Meta) # this will show some of the extracted data for the SKCM dataset

$clinical_patient_skcm
# A tibble: 472 × 65
   bcr_patient_uuid  bcr_patient_barcode form_completion_date prospective_collection retrospective_collec…¹ birth_days_to gender height_cm_at_diagnosis weight_kg_at_diagnosis race  ethnicity history_other_malign…²
   <chr>             <chr>               <chr>                <chr>                  <chr>                  <chr>         <chr>  <chr>                  <chr>                  <chr> <chr>     <chr>                 
 1 bcr_patient_uuid  bcr_patient_barcode form_completion_date tissue_prospective_co… tissue_retrospective_… days_to_birth gender height                 weight                 race  ethnicity other_dx              
 2 CDE_ID:           CDE_ID:2003301      CDE_ID:              CDE_ID:3088492         CDE_ID:3088528         CDE_ID:30082… CDE_I… CDE_ID:649             CDE_ID:651             CDE_… CDE_ID:2… CDE_ID:3382736        
 3 5564E6A7-2195-4B… TCGA-3N-A9WB        2014-5-29            YES                    NO                     -26176        MALE   175                    78                     WHITE NOT HISP… No                    
 4 551E071A-C290-4B… TCGA-3N-A9WC        2014-5-29            YES                    NO                     -30286        MALE   183                    68                     WHITE NOT HISP… No                    
 5 A29A20E3-5C2C-4F… TCGA-3N-A9WD        2014-5-29            YES                    NO                     -30163        MALE   183                    116                    WHITE NOT HISP… No                    
 6 3DD5A206-D7F3-42… TCGA-BF-A1PU        2013-4-25            YES                    NO                     -17025        FEMALE 160                    58                     WHITE [Unknown] No                    
 7 EFF78AF6-0F68-49… TCGA-BF-A1PV        2013-4-25            YES                    NO                     -27124        FEMALE 160                    70                     WHITE [Unknown] No                    
 8 197AC33E-D5DF-40… TCGA-BF-A1PX        2013-4-25            YES                    NO                     -20626        MALE   175                    78                     WHITE NOT HISP… No                    
 9 455F982C-A067-46… TCGA-BF-A1PZ        2013-4-25            YES                    NO                     -26240        FEMALE 163                    56                     WHITE NOT HISP… No                    
10 633DDC04-C424-42… TCGA-BF-A1Q0        2013-4-25            YES                    NO                     -29380        MALE   173                    69                     WHITE NOT HISP… No                    
# ℹ 462 more rows
# ℹ abbreviated names: ¹​retrospective_collection, ²​history_other_malignancy
# ℹ 53 more variables: history_neoadjuvant_treatment...13 <chr>, tumor_status <chr>, vital_status <chr>, last_contact_days_to <chr>, death_days_to <chr>, primary_melanoma_known_dx <chr>,
#   primary_multiple_at_dx <chr>, primary_at_dx_count <chr>, primary_location <chr>, breslow_thickness_at_diagnosis <chr>, clark_level_at_diagnosis <chr>, primary_melanoma_tumor_ulceration <chr>,
#   primary_melanoma_mitotic_rate <chr>, radiation_therapy_to_primary <chr>, initial_pathologic_dx_year <chr>, age_at_diagnosis <chr>, ajcc_staging_edition <chr>, ajcc_tumor_pathologic_pt <chr>,
#   ajcc_nodes_pathologic_pn <chr>, ajcc_metastasis_pathologic_pm <chr>, ldh_level <chr>, ajcc_pathologic_tumor_stage <chr>, submitted_tumor_dx_days_to <chr>, submitted_tumor_site <chr>,
#   metastatic_tumor_site <chr>, primary_melanoma_skin_type <chr>, prior_radiation_therapy <chr>, history_neoadjuvant_treatment...40 <chr>, history_neoadjuvant_tx_type <chr>, …
# ℹ Use `print(n = ...)` to see more rows

$clinical_radiation_skcm
# A tibble: 149 × 18
   bcr_patient_uuid                     bcr_patient_barcode bcr_radiation_barcode bcr_radiation_uuid   form_completion_date radiation_therapy_type radiation_therapy_site radiation_total_dose radiation_adjuvant_u…¹
   <chr>                                <chr>               <chr>                 <chr>                <chr>                <chr>                  <chr>                  <chr>                <chr>                 
 1 bcr_patient_uuid                     bcr_patient_barcode bcr_radiation_barcode bcr_radiation_uuid   form_completion_date radiation_type         anatomic_treatment_si… radiation_dosage     units                 
 2 CDE_ID:                              CDE_ID:2003301      CDE_ID:               CDE_ID:              CDE_ID:              CDE_ID:2842944         CDE_ID:2793522         CDE_ID:2721441       CDE_ID:61446          
 3 A29A20E3-5C2C-4F37-B93E-AE9EBC46EC53 TCGA-3N-A9WD        TCGA-3N-A9WD-R60044   483202B0-173B-42D1-… 2014-5-29            External               Distant site           4800                 cGy                   
 4 238111F9-A08B-49B4-9035-CC43026330E7 TCGA-D3-A1Q5        TCGA-D3-A1Q5-R32604   775FC64B-C831-4FA1-… 2012-10-2            External               Regional site          30                   Gy                    
 5 DF6303CD-FFB5-422F-9865-B09029A6D54F TCGA-D3-A1Q7        TCGA-D3-A1Q7-R35145   B40C4808-DC62-47C3-… 2012-10-10           External               Regional site          3000                 cGy                   
 6 7B7A49B5-5BE8-4966-8F3A-E6E01E694F86 TCGA-D3-A1Q8        TCGA-D3-A1Q8-R35146   1A047F7E-7143-4E7B-… 2012-10-10           External               Regional site          3000                 cGy                   
 7 19322032-C144-4962-B886-37606DAD33B7 TCGA-D3-A2J7        TCGA-D3-A2J7-R35212   F0214A29-5353-4E57-… 2012-10-10           External               Regional site          3000                 cGy                   
 8 E9E615A1-9323-49D3-904C-FCF4887FEA61 TCGA-D3-A2J9        TCGA-D3-A2J9-R35214   17926EC9-C3C7-49B9-… 2012-10-10           External               Regional site          30                   Gy                    
 9 33D7CCCB-6349-4337-8C5B-6E3E8B3C7AF1 TCGA-D3-A2JA        TCGA-D3-A2JA-R35215   9683BAE9-ED79-4C3D-… 2012-10-10           External               Local Recurrence       35                   Gy                    
10 3A27966B-2C4C-402F-B71B-DF7925C36A7C TCGA-D3-A2JH        TCGA-D3-A2JH-R34873   E9C846D6-0486-42BD-… 2012-10-10           External               Regional site          3000                 cGy                   
# ℹ 139 more rows
# ℹ abbreviated name: ¹​radiation_adjuvant_units
# ℹ 9 more variables: radiation_adjuvant_fractions_total <chr>, radiation_therapy_started_days_to <chr>, radiation_therapy_ongoing_indicator <chr>, radiation_therapy_ended_days_to <chr>,
#   treatment_best_response <chr>, course_number <chr>, radiation_type_other <chr>, therapy_regimen <chr>, therapy_regimen_other <chr>
# ℹ Use `print(n = ...)` to see more rows

$clinical_follow_up_v2.0_skcm
# A tibble: 391 × 29
   bcr_patient_uuid     bcr_patient_barcode bcr_followup_barcode bcr_followup_uuid form_completion_date followup_lost_to radiation_treatment_…¹ pharmaceutical_tx_ad…² tumor_status vital_status last_contact_days_to
   <chr>                <chr>               <chr>                <chr>             <chr>                <chr>            <chr>                  <chr>                  <chr>        <chr>        <chr>               
 1 bcr_patient_uuid     bcr_patient_barcode bcr_followup_barcode bcr_followup_uuid form_completion_date lost_follow_up   radiation_therapy      postoperative_rx_tx    person_neop… vital_status days_to_last_follow…
 2 CDE_ID:              CDE_ID:2003301      CDE_ID:              CDE_ID:           CDE_ID:              CDE_ID:61333     CDE_ID:2005312         CDE_ID:3397567         CDE_ID:2759… CDE_ID:5     CDE_ID:3008273      
 3 551E071A-C290-4B48-… TCGA-3N-A9WC        TCGA-3N-A9WC-F67104  BA36CE25-3689-4E… 2014-11-4            NO               NO                     NO                     WITH TUMOR   Alive        2022                
 4 3DD5A206-D7F3-42F1-… TCGA-BF-A1PU        TCGA-BF-A1PU-F68906  3FC09348-32EC-48… 2014-12-23           YES              [Not Available]        [Not Available]        [Not Availa… [Not Availa… [Not Available]     
 5 EFF78AF6-0F68-49B9-… TCGA-BF-A1PV        TCGA-BF-A1PV-F68907  C174F01D-D88D-49… 2014-12-23           YES              [Not Available]        [Not Available]        [Not Availa… [Not Availa… [Not Available]     
 6 455F982C-A067-46AC-… TCGA-BF-A1PZ        TCGA-BF-A1PZ-F68909  4B1D5ACA-C24D-4E… 2014-12-23           NO               NO                     NO                     TUMOR FREE   Alive        853                 
 7 633DDC04-C424-42C8-… TCGA-BF-A1Q0        TCGA-BF-A1Q0-F68910  48394337-6B3D-46… 2014-12-23           NO               NO                     NO                     TUMOR FREE   Alive        831                 
 8 62393DAB-AB41-4785-… TCGA-BF-A3DJ        TCGA-BF-A3DJ-F65978  6863AADE-07FC-4A… 2014-12-23           YES              [Not Available]        [Not Available]        [Not Availa… [Not Availa… [Not Available]     
 9 E9F0F030-D9AA-47C8-… TCGA-BF-A3DL        TCGA-BF-A3DL-F68911  196EB9F7-39D2-40… 2014-12-23           NO               NO                     NO                     TUMOR FREE   Alive        769                 
10 1CA2EB9F-9496-450F-… TCGA-BF-A3DM        TCGA-BF-A3DM-F68913  AE5E936F-7FDB-4C… 2014-12-23           NO               NO                     NO                     TUMOR FREE   Alive        601                 
# ℹ 381 more rows
# ℹ abbreviated names: ¹​radiation_treatment_adjuvant, ²​pharmaceutical_tx_adjuvant
# ℹ 18 more variables: death_days_to <chr>, subsequent_known_primaries <chr>, new_tumor_event_dx_indicator <chr>, new_tumor_event_dx_days_to <chr>, new_tumor_event_surgery <chr>,
#   new_tumor_event_surgery_days_to <chr>, new_tumor_event_radiation_tx <chr>, new_tumor_event_pharmaceutical_tx <chr>, new_tumor_event_type <chr>, new_tumor_event_met_site <chr>,
#   new_tumor_event_met_site_other <chr>, new_tumor_event_melanoma_location <chr>, melanoma_primary_count <chr>, new_tumor_event_melanoma_site <chr>, new_tumor_event_histo_type <chr>, new_tumor_event_site <chr>,
#   followup_reason <chr>, nte_anatomic_site_count <chr>
# ℹ Use `print(n = ...)` to see more rows

$clinical_omf_v4.0_skcm
# A tibble: 32 × 30
   bcr_patient_uuid                     bcr_patient_barcode bcr_omf_barcode  bcr_omf_uuid form_completion_date malignancy_type other_malignancy_dx_…¹ surgery_indicator other_malignancy_sur…² other_malignancy_sur…³
   <chr>                                <chr>               <chr>            <chr>        <chr>                <chr>           <chr>                  <chr>             <chr>                  <chr>                 
 1 bcr_patient_uuid                     bcr_patient_barcode bcr_omf_barcode  bcr_omf_uuid form_completion_date malignancy_type days_to_other_maligna… surgery_indicator surgery_type           days_to_surgical_rese…
 2 CDE_ID:                              CDE_ID:2003301      CDE_ID:          CDE_ID:      CDE_ID:              CDE_ID:3182890  CDE_ID:3462301         CDE_ID:3186538    CDE_ID:3462300         CDE_ID:3462302        
 3 2EC330F8-96E4-4270-AADC-563BB72F4B2C TCGA-D3-A2JE        TCGA-D3-A2JE-O1… A6D7215E-8F… 2011-6-27            Synchronous Ma… [Not Available]        [Not Available]   [Not Available]        188                   
 4 C58638ED-A38C-4494-A41E-6EE5283A7A59 TCGA-D3-A2JF        TCGA-D3-A2JF-O1… F57B990D-2D… 2011-6-27            Prior Malignan… [Not Available]        [Not Available]   [Not Available]        [Not Available]       
 5 C58638ED-A38C-4494-A41E-6EE5283A7A59 TCGA-D3-A2JF        TCGA-D3-A2JF-O1… F84B2888-5F… 2011-6-27            Prior Malignan… [Not Available]        [Not Available]   [Not Available]        [Not Available]       
 6 16182443-12A1-4B0F-A6AB-33C2942E2991 TCGA-D3-A3C8        TCGA-D3-A3C8-O1… EA5301AB-2D… 2011-9-11            Prior Malignan… [Not Available]        [Not Available]   [Not Available]        [Not Available]       
 7 16182443-12A1-4B0F-A6AB-33C2942E2991 TCGA-D3-A3C8        TCGA-D3-A3C8-O1… 28E0743F-36… 2011-9-11            Prior Malignan… [Not Available]        [Not Available]   [Not Available]        [Not Available]       
 8 0153F141-625E-4623-9F8A-296678002C63 TCGA-D3-A3ML        TCGA-D3-A3ML-O1… C4E381E0-58… 2011-12-8            Prior Malignan… [Not Available]        [Not Available]   [Not Available]        [Not Available]       
 9 0153F141-625E-4623-9F8A-296678002C63 TCGA-D3-A3ML        TCGA-D3-A3ML-O1… 75353761-4D… 2011-12-8            Prior Malignan… [Not Available]        [Not Available]   [Not Available]        [Not Available]       
10 0153F141-625E-4623-9F8A-296678002C63 TCGA-D3-A3ML        TCGA-D3-A3ML-O1… 33ED7364-ED… 2011-12-8            Prior Malignan… [Not Available]        [Not Available]   [Not Available]        [Not Available]       
# ℹ 22 more rows
# ℹ abbreviated names: ¹​other_malignancy_dx_days_to, ²​other_malignancy_surgery_type, ³​other_malignancy_surgery_days_to
# ℹ 20 more variables: pharmaceutical_therapy_indicator <chr>, pharmaceutical_therapy_extent <chr>, pharmaceutical_therapy_drug_name <chr>, pharmaceutical_tx_started_days_to <chr>,
#   radiation_therapy_indicator <chr>, radiation_therapy_extent <chr>, history_rt_tx_to_site_of_tcga_tumor <chr>, radiation_therapy_started_days_to <chr>, ajcc_staging_edition <chr>,
#   ajcc_tumor_pathologic_pt <chr>, ajcc_nodes_pathologic_pn <chr>, ajcc_metastasis_pathologic_pm <chr>, ajcc_pathologic_tumor_stage <chr>, clinical_stage <chr>, other_malignancy_anatomic_site <chr>,
#   other_malignancy_anatomic_site_text <chr>, other_malignancy_histological_type <chr>, other_malignancy_histological_type_text <chr>, other_malignancy_laterality <chr>, stage_other <chr>
# ℹ Use `print(n = ...)` to see more rows

$clinical_drug_skcm
# A tibble: 267 × 28
   bcr_patient_uuid        bcr_patient_barcode bcr_drug_barcode bcr_drug_uuid form_completion_date pharmaceutical_thera…¹ clinical_trial_drug_…² pharmaceutical_thera…³ pharmaceutical_tx_st…⁴ pharmaceutical_tx_on…⁵
   <chr>                   <chr>               <chr>            <chr>         <chr>                <chr>                  <chr>                  <chr>                  <chr>                  <chr>                 
 1 bcr_patient_uuid        bcr_patient_barcode bcr_drug_barcode bcr_drug_uuid form_completion_date drug_name              clinical_trail_drug_c… therapy_type           days_to_drug_therapy_… therapy_ongoing       
 2 CDE_ID:                 CDE_ID:2003301      CDE_ID:          CDE_ID:       CDE_ID:              CDE_ID:2975232         CDE_ID:3378323         CDE_ID:2793530         CDE_ID:3392465         CDE_ID:3103479        
 3 8C54FCFD-999F-43C5-B31… TCGA-D3-A1Q1        TCGA-D3-A1Q1-D3… A837F724-544… 2012-10-2            Cyclophosphamide       [Not Available]        Chemotherapy           247                    NO                    
 4 8C54FCFD-999F-43C5-B31… TCGA-D3-A1Q1        TCGA-D3-A1Q1-D4… 18E0B29D-583… 2013-2-22            [Not Available]        Melanoma-derived help… Immunotherapy          247                    NO                    
 5 8C54FCFD-999F-43C5-B31… TCGA-D3-A1Q1        TCGA-D3-A1Q1-D4… DFD48E5E-C36… 2013-2-22            [Not Available]        Class I MHC restricte… Vaccine                247                    NO                    
 6 29476D6A-0D06-4A18-891… TCGA-D3-A1Q3        TCGA-D3-A1Q3-D3… 762FC34B-A29… 2013-1-7             Cisplatin              [Not Available]        Chemotherapy           362                    NO                    
 7 1E05DA2E-7DD7-4C98-9E7… TCGA-D3-A1Q6        TCGA-D3-A1Q6-D3… 8036ED31-A3E… 2012-10-2            Interferon             [Not Available]        Immunotherapy          111                    NO                    
 8 798074D3-0B84-4DD5-AA8… TCGA-D3-A1Q9        TCGA-D3-A1Q9-D3… 15D5B49C-2D3… 2012-10-10           Lupron                 [Not Available]        Hormone Therapy        356                    NO                    
 9 798074D3-0B84-4DD5-AA8… TCGA-D3-A1Q9        TCGA-D3-A1Q9-D3… A441C4EF-216… 2012-10-10           GP-100                 [Not Available]        Vaccine                356                    NO                    
10 FBEE9FE7-8BED-41A6-BCF… TCGA-D3-A1QA        TCGA-D3-A1QA-D3… 22FADF39-879… 2012-10-2            recMAGE- A3            [Not Available]        Vaccine                1485                   NO                    
# ℹ 257 more rows
# ℹ abbreviated names: ¹​pharmaceutical_therapy_drug_name, ²​clinical_trial_drug_classification, ³​pharmaceutical_therapy_type, ⁴​pharmaceutical_tx_started_days_to, ⁵​pharmaceutical_tx_ongoing_indicator
# ℹ 18 more variables: pharmaceutical_tx_ended_days_to <chr>, treatment_best_response <chr>, days_to_stem_cell_transplantation <chr>, pharm_regimen <chr>, pharm_regimen_other <chr>,
#   pharma_adjuvant_cycles_count <chr>, pharma_type_other <chr>, pharmaceutical_tx_dose_units <chr>, pharmaceutical_tx_total_dose_units <chr>, prescribed_dose <chr>, regimen_number <chr>,
#   route_of_administration <chr>, stem_cell_transplantation <chr>, stem_cell_transplantation_type <chr>, therapy_regimen <chr>, therapy_regimen_other <chr>, total_dose <chr>, tx_on_clinical_trial <chr>
# ℹ Use `print(n = ...)` to see more rows
…
